[
    {
        "name": "nativescript-cardview",
        "directory": "../../node_modules/nativescript-cardview"
    },
    {
        "name": "nativescript-theme-core",
        "directory": "../../node_modules/nativescript-theme-core"
    },
    {
        "name": "nativescript-vue",
        "directory": "../../node_modules/nativescript-vue"
    },
    {
        "name": "tns-core-modules",
        "directory": "../../node_modules/tns-core-modules"
    },
    {
        "name": "tns-core-modules-widgets",
        "directory": "../../node_modules/tns-core-modules/node_modules/tns-core-modules-widgets"
    }
]